…
### Obtain density measures for each image (using Areas.csv file output from MicrogliaMorphology)

Note: The areas obtained in this file are dataset-specific and will be
in the units of your original input images

``` r
# list out all variables of interest present in the original image names to obtain numbers of microglia per image
microglianumbers <- samplesize(data_2xLPS, Antibody, MouseID, Sex, Treatment, BrainRegion, Subregion) 
microglianumbers %>% print(n=3, width=Inf)
```

    ## # A tibble: 148 × 7
    ## # Groups:   Antibody, MouseID, Sex, Treatment, BrainRegion [51]
    ##   Antibody MouseID Sex   Treatment BrainRegion Subregion   num
    ##   <chr>    <chr>   <chr> <chr>     <chr>       <chr>     <int>
    ## 1 Cx3cr1   1       F     2xLPS     FC          ACC          93
    ## 2 Cx3cr1   1       F     2xLPS     FC          IL          161
    ## 3 Cx3cr1   1       F     2xLPS     FC          PL          112
    ## # ℹ 145 more rows

``` r
# add Name column back in -- make sure that the resulting strings in the Name column match the names of your original input .tiff files that you used for MicrogliaMorphology !!
microglianumbers <- microglianumbers %>% unite("Name", Antibody:Subregion, sep="_", remove=FALSE) 
microglianumbers %>% print(n=3, width=Inf)
```

    ## # A tibble: 148 × 8
    ## # Groups:   Antibody, MouseID, Sex, Treatment, BrainRegion [51]
    ##   Name                    Antibody MouseID Sex   Treatment BrainRegion Subregion
    ##   <chr>                   <chr>    <chr>   <chr> <chr>     <chr>       <chr>    
    ## 1 Cx3cr1_1_F_2xLPS_FC_ACC Cx3cr1   1       F     2xLPS     FC          ACC      
    ## 2 Cx3cr1_1_F_2xLPS_FC_IL  Cx3cr1   1       F     2xLPS     FC          IL       
    ## 3 Cx3cr1_1_F_2xLPS_FC_PL  Cx3cr1   1       F     2xLPS     FC          PL       
    ##     num
    ##   <int>
    ## 1    93
    ## 2   161
    ## 3   112
    ## # ℹ 145 more rows

``` r
# path to Areas.csv file
AreasPath <- "./README_files/files/Areas.csv" 

# use celldensity function to calculate density at image-level: values are under the "Density" column
Density <- celldensity(AreasPath, microglianumbers)
Density %>% print(n=5, width=Inf)
```

    ## # A tibble: 148 × 10
    ## # Groups:   Antibody, MouseID, Sex, Treatment, BrainRegion [51]
    ##   Name                    Antibody MouseID Sex   Treatment BrainRegion Subregion
    ##   <chr>                   <chr>    <chr>   <chr> <chr>     <chr>       <chr>    
    ## 1 Cx3cr1_1_F_2xLPS_FC_ACC Cx3cr1   1       F     2xLPS     FC          ACC      
    ## 2 Cx3cr1_1_F_2xLPS_FC_IL  Cx3cr1   1       F     2xLPS     FC          IL       
    ## 3 Cx3cr1_1_F_2xLPS_FC_PL  Cx3cr1   1       F     2xLPS     FC          PL       
    ## 4 Cx3cr1_1_F_2xLPS_HC_CA1 Cx3cr1   1       F     2xLPS     HC          CA1      
    ## 5 Cx3cr1_1_F_2xLPS_HC_CA2 Cx3cr1   1       F     2xLPS     HC          CA2      
    ##     num     Area  Density
    ##   <int>    <dbl>    <dbl>
    ## 1    93  333722. 0.000279
    ## 2   161  589983. 0.000273
    ## 3   112  423038. 0.000265
    ## 4   263 1018060. 0.000258
    ## 5    43  172581. 0.000249
    ## # ℹ 143 more rows
…
e.g., calculating density at the brain region-level rather than the
subregion level (which are what the image rois capture in our example
dataset)

``` r
Density %>% 
  group_by(Antibody, MouseID, Sex, Treatment, BrainRegion) %>%
  summarise(num=sum(num), Area=sum(Area)) %>% # calculate new cell numbers and new areas at the brain region level
  mutate(Density=num/Area) # calculate new density at the brain region level
```

    ## `summarise()` has grouped output by 'Antibody', 'MouseID', 'Sex', 'Treatment'.
    ## You can override using the `.groups` argument.

    ## # A tibble: 51 × 8
    ## # Groups:   Antibody, MouseID, Sex, Treatment [18]
    ##    Antibody MouseID Sex   Treatment BrainRegion   num     Area  Density
    ##    <chr>    <chr>   <chr> <chr>     <chr>       <int>    <dbl>    <dbl>
    ##  1 Cx3cr1   1       F     2xLPS     FC            366 1346743. 0.000272
    ##  2 Cx3cr1   1       F     2xLPS     HC            723 2705033. 0.000267
    ##  3 Cx3cr1   1       F     2xLPS     STR           614 2229707. 0.000275
    ##  4 Cx3cr1   2       F     PBS       FC            523 1758434. 0.000297
    ##  5 Cx3cr1   2       F     PBS       HC            667 2448885. 0.000272
    ##  6 Cx3cr1   2       F     PBS       STR          1306 4608609. 0.000283
    ##  7 Cx3cr1   3       F     PBS       FC            412 1496417. 0.000275
    ##  8 Cx3cr1   3       F     PBS       STR           733 2624917. 0.000279
    ##  9 Cx3cr1   4       F     2xLPS     FC            375 1762321. 0.000213
    ## 10 Cx3cr1   4       F     2xLPS     HC            503 2154789. 0.000233
    ## # ℹ 41 more rows
…
